{
    "items": [
      {
        "album": {
          "album_type": "SINGLE",
          "artists": [
            {
              "external_urls": {
                "spotify": "https://open.spotify.com/artist/2ElMqlv5py0QFIVXUff627"
              },
              "href": "https://api.spotify.com/v1/artists/2ElMqlv5py0QFIVXUff627",
              "id": "2ElMqlv5py0QFIVXUff627",
              "name": "KSLV Noh",
              "type": "artist",
              "uri": "spotify:artist:2ElMqlv5py0QFIVXUff627"
            }
          ],
          "available_markets": [
            "AD",
            "AE",
            "AR",
            "AT",
            "AU",
            "BE",
            "BG",
            "BH",
            "BO",
            "BR",
            "CA",
            "CH",
            "CL",
            "CO",
            "CR",
            "CY",
            "CZ",
            "DE",
            "DK",
            "DO",
            "DZ",
            "EC",
            "EE",
            "EG",
            "ES",
            "FI",
            "FR",
            "GB",
            "GR",
            "GT",
            "HK",
            "HN",
            "HU",
            "ID",
            "IE",
            "IL",
            "IN",
            "IS",
            "IT",
            "JO",
            "JP",
            "KW",
            "LB",
            "LI",
            "LT",
            "LU",
            "LV",
            "MA",
            "MC",
            "MT",
            "MX",
            "MY",
            "NI",
            "NL",
            "NO",
            "NZ",
            "OM",
            "PA",
            "PE",
            "PH",
            "PL",
            "PS",
            "PT",
            "PY",
            "QA",
            "RO",
            "SA",
            "SE",
            "SG",
            "SK",
            "SV",
            "TH",
            "TN",
            "TR",
            "TW",
            "US",
            "UY",
            "VN",
            "ZA"
          ],
          "external_urls": {
            "spotify": "https://open.spotify.com/album/5jspmhiTaJhY4lJui9P98i"
          },
          "href": "https://api.spotify.com/v1/albums/5jspmhiTaJhY4lJui9P98i",
          "id": "5jspmhiTaJhY4lJui9P98i",
          "images": [
            {
              "height": 640,
              "url": "https://i.scdn.co/image/ab67616d0000b273abb159337fa7ad8bfc55390d",
              "width": 640
            },
            {
              "height": 300,
              "url": "https://i.scdn.co/image/ab67616d00001e02abb159337fa7ad8bfc55390d",
              "width": 300
            },
            {
              "height": 64,
              "url": "https://i.scdn.co/image/ab67616d00004851abb159337fa7ad8bfc55390d",
              "width": 64
            }
          ],
          "name": "Undead",
          "release_date": "2023-06-02",
          "release_date_precision": "day",
          "total_tracks": 1,
          "type": "album",
          "uri": "spotify:album:5jspmhiTaJhY4lJui9P98i"
        },
        "artists": [
          {
            "external_urls": {
              "spotify": "https://open.spotify.com/artist/2ElMqlv5py0QFIVXUff627"
            },
            "href": "https://api.spotify.com/v1/artists/2ElMqlv5py0QFIVXUff627",
            "id": "2ElMqlv5py0QFIVXUff627",
            "name": "KSLV Noh",
            "type": "artist",
            "uri": "spotify:artist:2ElMqlv5py0QFIVXUff627"
          }
        ],
        "available_markets": [
          "AD",
          "AE",
          "AR",
          "AT",
          "AU",
          "BE",
          "BG",
          "BH",
          "BO",
          "BR",
          "CA",
          "CH",
          "CL",
          "CO",
          "CR",
          "CY",
          "CZ",
          "DE",
          "DK",
          "DO",
          "DZ",
          "EC",
          "EE",
          "EG",
          "ES",
          "FI",
          "FR",
          "GB",
          "GR",
          "GT",
          "HK",
          "HN",
          "HU",
          "ID",
          "IE",
          "IL",
          "IN",
          "IS",
          "IT",
          "JO",
          "JP",
          "KW",
          "LB",
          "LI",
          "LT",
          "LU",
          "LV",
          "MA",
          "MC",
          "MT",
          "MX",
          "MY",
          "NI",
          "NL",
          "NO",
          "NZ",
          "OM",
          "PA",
          "PE",
          "PH",
          "PL",
          "PS",
          "PT",
          "PY",
          "QA",
          "RO",
          "SA",
          "SE",
          "SG",
          "SK",
          "SV",
          "TH",
          "TN",
          "TR",
          "TW",
          "US",
          "UY",
          "VN",
          "ZA"
        ],
        "disc_number": 1,
        "duration_ms": 165685,
        "explicit": false,
        "external_ids": {
          "isrc": "QM6P42357014"
        },
        "external_urls": {
          "spotify": "https://open.spotify.com/track/3GDRUoekeEGhN1oq3vELoh"
        },
        "href": "https://api.spotify.com/v1/tracks/3GDRUoekeEGhN1oq3vELoh",
        "id": "3GDRUoekeEGhN1oq3vELoh",
        "is_local": false,
        "name": "Undead",
        "popularity": 45,
        "preview_url": "https://p.scdn.co/mp3-preview/9f02f4ed0886200a8a40f51809ab7c7060c1e06e?cid=0eb15ee3b8ee42dcaaf3dcee114c1f22",
        "track_number": 1,
        "type": "track",
        "uri": "spotify:track:3GDRUoekeEGhN1oq3vELoh"
      },
      {
        "album": {
          "album_type": "SINGLE",
          "artists": [
            {
              "external_urls": {
                "spotify": "https://open.spotify.com/artist/61TQfpvTjHYQjPrvtJPwVa"
              },
              "href": "https://api.spotify.com/v1/artists/61TQfpvTjHYQjPrvtJPwVa",
              "id": "61TQfpvTjHYQjPrvtJPwVa",
              "name": "NBSPLV",
              "type": "artist",
              "uri": "spotify:artist:61TQfpvTjHYQjPrvtJPwVa"
            }
          ],
          "available_markets": [
            "AD",
            "AE",
            "AR",
            "AT",
            "AU",
            "BE",
            "BG",
            "BH",
            "BO",
            "BR",
            "CA",
            "CH",
            "CL",
            "CO",
            "CR",
            "CY",
            "CZ",
            "DE",
            "DK",
            "DO",
            "DZ",
            "EC",
            "EE",
            "EG",
            "ES",
            "FI",
            "FR",
            "GB",
            "GR",
            "GT",
            "HK",
            "HN",
            "HU",
            "ID",
            "IE",
            "IL",
            "IN",
            "IS",
            "IT",
            "JO",
            "JP",
            "KW",
            "LB",
            "LI",
            "LT",
            "LU",
            "LV",
            "MA",
            "MC",
            "MT",
            "MX",
            "MY",
            "NI",
            "NL",
            "NO",
            "NZ",
            "OM",
            "PA",
            "PE",
            "PH",
            "PL",
            "PS",
            "PT",
            "PY",
            "QA",
            "RO",
            "SA",
            "SE",
            "SG",
            "SK",
            "SV",
            "TH",
            "TN",
            "TR",
            "TW",
            "US",
            "UY",
            "VN",
            "ZA"
          ],
          "external_urls": {
            "spotify": "https://open.spotify.com/album/2nQUgF7PdSKzKOIagdHeqk"
          },
          "href": "https://api.spotify.com/v1/albums/2nQUgF7PdSKzKOIagdHeqk",
          "id": "2nQUgF7PdSKzKOIagdHeqk",
          "images": [
            {
              "height": 640,
              "url": "https://i.scdn.co/image/ab67616d0000b2739d4a4d1d3df825f282f48c59",
              "width": 640
            },
            {
              "height": 300,
              "url": "https://i.scdn.co/image/ab67616d00001e029d4a4d1d3df825f282f48c59",
              "width": 300
            },
            {
              "height": 64,
              "url": "https://i.scdn.co/image/ab67616d000048519d4a4d1d3df825f282f48c59",
              "width": 64
            }
          ],
          "name": "The Lost Soul Down (Slowed & Reverb)",
          "release_date": "2023-05-12",
          "release_date_precision": "day",
          "total_tracks": 1,
          "type": "album",
          "uri": "spotify:album:2nQUgF7PdSKzKOIagdHeqk"
        },
        "artists": [
          {
            "external_urls": {
              "spotify": "https://open.spotify.com/artist/61TQfpvTjHYQjPrvtJPwVa"
            },
            "href": "https://api.spotify.com/v1/artists/61TQfpvTjHYQjPrvtJPwVa",
            "id": "61TQfpvTjHYQjPrvtJPwVa",
            "name": "NBSPLV",
            "type": "artist",
            "uri": "spotify:artist:61TQfpvTjHYQjPrvtJPwVa"
          }
        ],
        "available_markets": [
          "AD",
          "AE",
          "AR",
          "AT",
          "AU",
          "BE",
          "BG",
          "BH",
          "BO",
          "BR",
          "CA",
          "CH",
          "CL",
          "CO",
          "CR",
          "CY",
          "CZ",
          "DE",
          "DK",
          "DO",
          "DZ",
          "EC",
          "EE",
          "EG",
          "ES",
          "FI",
          "FR",
          "GB",
          "GR",
          "GT",
          "HK",
          "HN",
          "HU",
          "ID",
          "IE",
          "IL",
          "IN",
          "IS",
          "IT",
          "JO",
          "JP",
          "KW",
          "LB",
          "LI",
          "LT",
          "LU",
          "LV",
          "MA",
          "MC",
          "MT",
          "MX",
          "MY",
          "NI",
          "NL",
          "NO",
          "NZ",
          "OM",
          "PA",
          "PE",
          "PH",
          "PL",
          "PS",
          "PT",
          "PY",
          "QA",
          "RO",
          "SA",
          "SE",
          "SG",
          "SK",
          "SV",
          "TH",
          "TN",
          "TR",
          "TW",
          "US",
          "UY",
          "VN",
          "ZA"
        ],
        "disc_number": 1,
        "duration_ms": 241111,
        "explicit": false,
        "external_ids": {
          "isrc": "FRX762326812"
        },
        "external_urls": {
          "spotify": "https://open.spotify.com/track/5XtsfMFmpM401S6dbVaOQw"
        },
        "href": "https://api.spotify.com/v1/tracks/5XtsfMFmpM401S6dbVaOQw",
        "id": "5XtsfMFmpM401S6dbVaOQw",
        "is_local": false,
        "name": "The Lost Soul Down - Slowed & Reverb",
        "popularity": 79,
        "preview_url": "https://p.scdn.co/mp3-preview/fe09bc261f5e43fd081976f50a90c0b1eb8de4cb?cid=0eb15ee3b8ee42dcaaf3dcee114c1f22",
        "track_number": 1,
        "type": "track",
        "uri": "spotify:track:5XtsfMFmpM401S6dbVaOQw"
      },
      {
        "album": {
          "album_type": "ALBUM",
          "artists": [
            {
              "external_urls": {
                "spotify": "https://open.spotify.com/artist/0ABk515kENDyATUdpCKVfW"
              },
              "href": "https://api.spotify.com/v1/artists/0ABk515kENDyATUdpCKVfW",
              "id": "0ABk515kENDyATUdpCKVfW",
              "name": "Westside Gunn",
              "type": "artist",
              "uri": "spotify:artist:0ABk515kENDyATUdpCKVfW"
            }
          ],
          "available_markets": [
            "AD",
            "AE",
            "AR",
            "AT",
            "AU",
            "BE",
            "BG",
            "BH",
            "BO",
            "BR",
            "CA",
            "CH",
            "CL",
            "CO",
            "CR",
            "CY",
            "CZ",
            "DE",
            "DK",
            "DO",
            "DZ",
            "EC",
            "EE",
            "EG",
            "ES",
            "FI",
            "FR",
            "GB",
            "GR",
            "GT",
            "HK",
            "HN",
            "HU",
            "ID",
            "IE",
            "IL",
            "IN",
            "IS",
            "IT",
            "JO",
            "JP",
            "KW",
            "LB",
            "LI",
            "LT",
            "LU",
            "LV",
            "MA",
            "MC",
            "MT",
            "MX",
            "MY",
            "NI",
            "NL",
            "NO",
            "NZ",
            "OM",
            "PA",
            "PE",
            "PH",
            "PL",
            "PS",
            "PT",
            "PY",
            "QA",
            "RO",
            "SA",
            "SE",
            "SG",
            "SK",
            "SV",
            "TH",
            "TN",
            "TR",
            "TW",
            "US",
            "UY",
            "VN",
            "ZA"
          ],
          "external_urls": {
            "spotify": "https://open.spotify.com/album/6nfJMRoIjyRwk3ZTHNm0PY"
          },
          "href": "https://api.spotify.com/v1/albums/6nfJMRoIjyRwk3ZTHNm0PY",
          "id": "6nfJMRoIjyRwk3ZTHNm0PY",
          "images": [
            {
              "height": 640,
              "url": "https://i.scdn.co/image/ab67616d0000b273a29bd588f4caf84bd4cd6f8b",
              "width": 640
            },
            {
              "height": 300,
              "url": "https://i.scdn.co/image/ab67616d00001e02a29bd588f4caf84bd4cd6f8b",
              "width": 300
            },
            {
              "height": 64,
              "url": "https://i.scdn.co/image/ab67616d00004851a29bd588f4caf84bd4cd6f8b",
              "width": 64
            }
          ],
          "name": "Pray for Paris",
          "release_date": "2020-04-17",
          "release_date_precision": "day",
          "total_tracks": 12,
          "type": "album",
          "uri": "spotify:album:6nfJMRoIjyRwk3ZTHNm0PY"
        },
        "artists": [
          {
            "external_urls": {
              "spotify": "https://open.spotify.com/artist/0ABk515kENDyATUdpCKVfW"
            },
            "href": "https://api.spotify.com/v1/artists/0ABk515kENDyATUdpCKVfW",
            "id": "0ABk515kENDyATUdpCKVfW",
            "name": "Westside Gunn",
            "type": "artist",
            "uri": "spotify:artist:0ABk515kENDyATUdpCKVfW"
          },
          {
            "external_urls": {
              "spotify": "https://open.spotify.com/artist/0Y4inQK6OespitzD6ijMwb"
            },
            "href": "https://api.spotify.com/v1/artists/0Y4inQK6OespitzD6ijMwb",
            "id": "0Y4inQK6OespitzD6ijMwb",
            "name": "Freddie Gibbs",
            "type": "artist",
            "uri": "spotify:artist:0Y4inQK6OespitzD6ijMwb"
          },
          {
            "external_urls": {
              "spotify": "https://open.spotify.com/artist/5X0V59ipZnbvnubW0rQVri"
            },
            "href": "https://api.spotify.com/v1/artists/5X0V59ipZnbvnubW0rQVri",
            "id": "5X0V59ipZnbvnubW0rQVri",
            "name": "Roc Marciano",
            "type": "artist",
            "uri": "spotify:artist:5X0V59ipZnbvnubW0rQVri"
          }
        ],
        "available_markets": [
          "AD",
          "AE",
          "AR",
          "AT",
          "AU",
          "BE",
          "BG",
          "BH",
          "BO",
          "BR",
          "CA",
          "CH",
          "CL",
          "CO",
          "CR",
          "CY",
          "CZ",
          "DE",
          "DK",
          "DO",
          "DZ",
          "EC",
          "EE",
          "EG",
          "ES",
          "FI",
          "FR",
          "GB",
          "GR",
          "GT",
          "HK",
          "HN",
          "HU",
          "ID",
          "IE",
          "IL",
          "IN",
          "IS",
          "IT",
          "JO",
          "JP",
          "KW",
          "LB",
          "LI",
          "LT",
          "LU",
          "LV",
          "MA",
          "MC",
          "MT",
          "MX",
          "MY",
          "NI",
          "NL",
          "NO",
          "NZ",
          "OM",
          "PA",
          "PE",
          "PH",
          "PL",
          "PS",
          "PT",
          "PY",
          "QA",
          "RO",
          "SA",
          "SE",
          "SG",
          "SK",
          "SV",
          "TH",
          "TN",
          "TR",
          "TW",
          "US",
          "UY",
          "VN",
          "ZA"
        ],
        "disc_number": 1,
        "duration_ms": 252954,
        "explicit": true,
        "external_ids": {
          "isrc": "USUYG1305217"
        },
        "external_urls": {
          "spotify": "https://open.spotify.com/track/68xjJPxtRpCKxtrTtRYVF9"
        },
        "href": "https://api.spotify.com/v1/tracks/68xjJPxtRpCKxtrTtRYVF9",
        "id": "68xjJPxtRpCKxtrTtRYVF9",
        "is_local": false,
        "name": "$500 Ounces (feat. Freddie Gibbs & Roc Marciano)",
        "popularity": 57,
        "preview_url": "https://p.scdn.co/mp3-preview/210bb22734b598bad130005a5c4f74bbabe67d78?cid=0eb15ee3b8ee42dcaaf3dcee114c1f22",
        "track_number": 7,
        "type": "track",
        "uri": "spotify:track:68xjJPxtRpCKxtrTtRYVF9"
      },
      {
        "album": {
          "album_type": "SINGLE",
          "artists": [
            {
              "external_urls": {
                "spotify": "https://open.spotify.com/artist/2nK4DggDGY4hrSTxS2SfGN"
              },
              "href": "https://api.spotify.com/v1/artists/2nK4DggDGY4hrSTxS2SfGN",
              "id": "2nK4DggDGY4hrSTxS2SfGN",
              "name": "Otto Parkor 5.0",
              "type": "artist",
              "uri": "spotify:artist:2nK4DggDGY4hrSTxS2SfGN"
            }
          ],
          "available_markets": [
            "AD",
            "AE",
            "AR",
            "AT",
            "AU",
            "BE",
            "BG",
            "BH",
            "BO",
            "BR",
            "CA",
            "CH",
            "CL",
            "CO",
            "CR",
            "CY",
            "CZ",
            "DE",
            "DK",
            "DO",
            "DZ",
            "EC",
            "EE",
            "EG",
            "ES",
            "FI",
            "FR",
            "GB",
            "GR",
            "GT",
            "HK",
            "HN",
            "HU",
            "ID",
            "IE",
            "IL",
            "IN",
            "IS",
            "IT",
            "JO",
            "JP",
            "KW",
            "LB",
            "LI",
            "LT",
            "LU",
            "LV",
            "MA",
            "MC",
            "MT",
            "MX",
            "MY",
            "NI",
            "NL",
            "NO",
            "NZ",
            "OM",
            "PA",
            "PE",
            "PH",
            "PL",
            "PS",
            "PT",
            "PY",
            "QA",
            "RO",
            "SA",
            "SE",
            "SG",
            "SK",
            "SV",
            "TH",
            "TN",
            "TR",
            "TW",
            "US",
            "UY",
            "VN",
            "ZA"
          ],
          "external_urls": {
            "spotify": "https://open.spotify.com/album/4unj9riyuvSHDA3NZbxgTB"
          },
          "href": "https://api.spotify.com/v1/albums/4unj9riyuvSHDA3NZbxgTB",
          "id": "4unj9riyuvSHDA3NZbxgTB",
          "images": [
            {
              "height": 640,
              "url": "https://i.scdn.co/image/ab67616d0000b273e09048d8a6d14beb6f6bce30",
              "width": 640
            },
            {
              "height": 300,
              "url": "https://i.scdn.co/image/ab67616d00001e02e09048d8a6d14beb6f6bce30",
              "width": 300
            },
            {
              "height": 64,
              "url": "https://i.scdn.co/image/ab67616d00004851e09048d8a6d14beb6f6bce30",
              "width": 64
            }
          ],
          "name": "Ainsi bas la vida (TikTok Edition)",
          "release_date": "2022-03-14",
          "release_date_precision": "day",
          "total_tracks": 1,
          "type": "album",
          "uri": "spotify:album:4unj9riyuvSHDA3NZbxgTB"
        },
        "artists": [
          {
            "external_urls": {
              "spotify": "https://open.spotify.com/artist/2nK4DggDGY4hrSTxS2SfGN"
            },
            "href": "https://api.spotify.com/v1/artists/2nK4DggDGY4hrSTxS2SfGN",
            "id": "2nK4DggDGY4hrSTxS2SfGN",
            "name": "Otto Parkor 5.0",
            "type": "artist",
            "uri": "spotify:artist:2nK4DggDGY4hrSTxS2SfGN"
          }
        ],
        "available_markets": [
          "AD",
          "AE",
          "AR",
          "AT",
          "AU",
          "BE",
          "BG",
          "BH",
          "BO",
          "BR",
          "CA",
          "CH",
          "CL",
          "CO",
          "CR",
          "CY",
          "CZ",
          "DE",
          "DK",
          "DO",
          "DZ",
          "EC",
          "EE",
          "EG",
          "ES",
          "FI",
          "FR",
          "GB",
          "GR",
          "GT",
          "HK",
          "HN",
          "HU",
          "ID",
          "IE",
          "IL",
          "IN",
          "IS",
          "IT",
          "JO",
          "JP",
          "KW",
          "LB",
          "LI",
          "LT",
          "LU",
          "LV",
          "MA",
          "MC",
          "MT",
          "MX",
          "MY",
          "NI",
          "NL",
          "NO",
          "NZ",
          "OM",
          "PA",
          "PE",
          "PH",
          "PL",
          "PS",
          "PT",
          "PY",
          "QA",
          "RO",
          "SA",
          "SE",
          "SG",
          "SK",
          "SV",
          "TH",
          "TN",
          "TR",
          "TW",
          "US",
          "UY",
          "VN",
          "ZA"
        ],
        "disc_number": 1,
        "duration_ms": 211461,
        "explicit": false,
        "external_ids": {
          "isrc": "GBJHC2233201"
        },
        "external_urls": {
          "spotify": "https://open.spotify.com/track/7J5ikgVm1oVHzsbiTbsbPh"
        },
        "href": "https://api.spotify.com/v1/tracks/7J5ikgVm1oVHzsbiTbsbPh",
        "id": "7J5ikgVm1oVHzsbiTbsbPh",
        "is_local": false,
        "name": "Ainsi bas la vida (TikTok Edition)",
        "popularity": 45,
        "preview_url": "https://p.scdn.co/mp3-preview/95228e867844f9779f3e06ada4276c45b291349b?cid=0eb15ee3b8ee42dcaaf3dcee114c1f22",
        "track_number": 1,
        "type": "track",
        "uri": "spotify:track:7J5ikgVm1oVHzsbiTbsbPh"
      },
      {
        "album": {
          "album_type": "ALBUM",
          "artists": [
            {
              "external_urls": {
                "spotify": "https://open.spotify.com/artist/15iVAtD3s3FsQR4w1v6M0P"
              },
              "href": "https://api.spotify.com/v1/artists/15iVAtD3s3FsQR4w1v6M0P",
              "id": "15iVAtD3s3FsQR4w1v6M0P",
              "name": "Chief Keef",
              "type": "artist",
              "uri": "spotify:artist:15iVAtD3s3FsQR4w1v6M0P"
            }
          ],
          "available_markets": [
            "AD",
            "AE",
            "AR",
            "AT",
            "AU",
            "BE",
            "BG",
            "BH",
            "BO",
            "BR",
            "CA",
            "CH",
            "CL",
            "CO",
            "CR",
            "CY",
            "CZ",
            "DE",
            "DK",
            "DO",
            "DZ",
            "EC",
            "EE",
            "EG",
            "ES",
            "FI",
            "FR",
            "GB",
            "GR",
            "GT",
            "HK",
            "HN",
            "HU",
            "ID",
            "IE",
            "IL",
            "IN",
            "IS",
            "IT",
            "JO",
            "JP",
            "KW",
            "LB",
            "LI",
            "LT",
            "LU",
            "LV",
            "MA",
            "MC",
            "MT",
            "MX",
            "MY",
            "NI",
            "NL",
            "NO",
            "NZ",
            "OM",
            "PA",
            "PE",
            "PH",
            "PL",
            "PS",
            "PT",
            "PY",
            "QA",
            "RO",
            "SA",
            "SE",
            "SG",
            "SK",
            "SV",
            "TH",
            "TN",
            "TR",
            "TW",
            "US",
            "UY",
            "VN",
            "ZA"
          ],
          "external_urls": {
            "spotify": "https://open.spotify.com/album/2B4y3j02ho6XNF8BEzx3JF"
          },
          "href": "https://api.spotify.com/v1/albums/2B4y3j02ho6XNF8BEzx3JF",
          "id": "2B4y3j02ho6XNF8BEzx3JF",
          "images": [
            {
              "height": 640,
              "url": "https://i.scdn.co/image/ab67616d0000b273a76616abf60ce17491e95891",
              "width": 640
            },
            {
              "height": 300,
              "url": "https://i.scdn.co/image/ab67616d00001e02a76616abf60ce17491e95891",
              "width": 300
            },
            {
              "height": 64,
              "url": "https://i.scdn.co/image/ab67616d00004851a76616abf60ce17491e95891",
              "width": 64
            }
          ],
          "name": "Finally Rich",
          "release_date": "2012-01-01",
          "release_date_precision": "day",
          "total_tracks": 12,
          "type": "album",
          "uri": "spotify:album:2B4y3j02ho6XNF8BEzx3JF"
        },
        "artists": [
          {
            "external_urls": {
              "spotify": "https://open.spotify.com/artist/15iVAtD3s3FsQR4w1v6M0P"
            },
            "href": "https://api.spotify.com/v1/artists/15iVAtD3s3FsQR4w1v6M0P",
            "id": "15iVAtD3s3FsQR4w1v6M0P",
            "name": "Chief Keef",
            "type": "artist",
            "uri": "spotify:artist:15iVAtD3s3FsQR4w1v6M0P"
          }
        ],
        "available_markets": [
          "AD",
          "AE",
          "AR",
          "AT",
          "AU",
          "BE",
          "BG",
          "BH",
          "BO",
          "BR",
          "CA",
          "CH",
          "CL",
          "CO",
          "CR",
          "CY",
          "CZ",
          "DE",
          "DK",
          "DO",
          "DZ",
          "EC",
          "EE",
          "EG",
          "ES",
          "FI",
          "FR",
          "GB",
          "GR",
          "GT",
          "HK",
          "HN",
          "HU",
          "ID",
          "IE",
          "IL",
          "IN",
          "IS",
          "IT",
          "JO",
          "JP",
          "KW",
          "LB",
          "LI",
          "LT",
          "LU",
          "LV",
          "MA",
          "MC",
          "MT",
          "MX",
          "MY",
          "NI",
          "NL",
          "NO",
          "NZ",
          "OM",
          "PA",
          "PE",
          "PH",
          "PL",
          "PS",
          "PT",
          "PY",
          "QA",
          "RO",
          "SA",
          "SE",
          "SG",
          "SK",
          "SV",
          "TH",
          "TN",
          "TR",
          "TW",
          "US",
          "UY",
          "VN",
          "ZA"
        ],
        "disc_number": 1,
        "duration_ms": 246213,
        "explicit": true,
        "external_ids": {
          "isrc": "USUM71214600"
        },
        "external_urls": {
          "spotify": "https://open.spotify.com/track/01Lr5YepbgjXAWR9iOEyH1"
        },
        "href": "https://api.spotify.com/v1/tracks/01Lr5YepbgjXAWR9iOEyH1",
        "id": "01Lr5YepbgjXAWR9iOEyH1",
        "is_local": false,
        "name": "Love Sosa",
        "popularity": 84,
        "preview_url": "https://p.scdn.co/mp3-preview/2284e6aedbab90b54f078c7e993711700b171837?cid=0eb15ee3b8ee42dcaaf3dcee114c1f22",
        "track_number": 1,
        "type": "track",
        "uri": "spotify:track:01Lr5YepbgjXAWR9iOEyH1"
      }
    ],
    "total": 50,
    "limit": 5,
    "offset": 0,
    "href": "https://api.spotify.com/v1/me/top/tracks?limit=5&offset=0",
    "next": "https://api.spotify.com/v1/me/top/tracks?limit=5&offset=5",
    "previous": null
}